{
  "comment0": "maidさんの初期設定Renew",
  "setting": {
    "name": "shino",
    "interval": 3,
    "quietinterval": 60,
    "defpic": "shino_egao1.png",
    "defmsg": "呼んだか お前様 ♥",
    "defbgc": "#fff9fc",
    "pagemsg": "{page}のページだ お前様"
  },
  "comment1": "maidさんのお小言(１行目は２言目に必ず言います。 最後３行は「空き容量」，「nenuCancel」と「静かに！」に表示されます)",
  "comment2": "小言, イメージファイル名， 背景色， 吹き出し形状",
  "speak": [
    [ "今日のエラーは {self.logErrItemCount} 件 じゃの〜", "" ],
    
    [ "何をするか お前様！", "shino_bikkuri.png", "", "" ],
    [ "ミスタードーナッツの存続する限りにおいて、儂は人類を滅ぼさん！", "shino_donbiki.png", "", "" ],
    [ "この儂を差し置いて……", "shino_donbiki.png", "", "" ],
    [ "かか♪", "shino_doya.png", "", "" ],
    [ "お前様 予約が多すぎじゃ", "shino_eeee.png", "", "" ],
    [ "かか♪", "shino_egao.png", "", "" ],
    [ "かかか♪", "shino_egao1.png", "", "" ],
    [ "くだらん嫉妬をするな<br>可愛いヤキモチ程度にしておけ", "shino_egao2.png", "", "" ],
    [ "今の儂にはお前様しかおらぬ", "shino_egao2.png", "", "" ],
    [ "ぱないの！！", "shino_gokigen.png", "", "" ],
    [ "ドーナッツっ！", "shino_gokigen2.png", "", "" ],
    [ "お前様 コソコソ何をしておる…", "shino_hahan.png", "", "" ],
    [ "土産はないのか？", "shino_he.png" ],
    [ "なんじゃ。うぬよ、眼鏡で三つ編みのあの携帯食…<br>持って来んかったのか？", "shino_he1.png" ],
    [ "", "shino_iziwaru.png" ],
    [ "", "shino_kibishii.png" ],
    [ "なっ、何をするんじゃお前様！い、イぃタリア男か！", "shino_kibishii2.png" ],
    [ "何をするか お前様！", "shino_kougi.png" ],
    [ "わ〜ん，いけずぅ！！", "shino_kougi2.png" ],
    [ "ふふふっ…", "shino_mieru.png" ],
    [ "吸○鬼パーンチ！！", "shino_n.png", "", "" ],
    [ "ミスドは聖地じゃ", "shino_nama.png", "", "" ],
    [ "ぱないの。このわっか状の食べ物，マジまいうー", "shino_nama.png", "", "" ],
    [ "Zzz…", "shino_nemui.png" ],

    [ "ん〜 残りは{self.freeSpace}じーびー？くらいじゃ", "aya_egao3.png" ],
    [ "用もないのに声をかけるでない", "shino_he1.png" ],
    [ "つれないの〜お前様", "shino_donbiki.png", "#ffdbff" ]
  ],
  "comment3": "maid menuの設定(最後３行は，「空き容量」，「nenuCancel」と「静かに！」に使われます)",
  "menu": [
    "なんじゃ お前様？<br>",
    "<a href='#epg'>　番組表を見せて</a><br>",
    "<a href='#search'>　番組を検索</a><br>",
    "<a href='#reserve'>　予約を見せて</a><br>",
    "<a href='#auto-reserve'>　自動予約を開いて</a><br>",
    "<a href='manual.html' target='blank'>　マニュアル見せて</a><br>",
    
    "空き容量を教えて？",
    "何でもない…",
    "ちょっと静かに！"
  ]
}
